<?xml version="1.0" encoding="utf-8"?>
<!-- Generator: Adobe Illustrator 23.0.4, SVG Export Plug-In . SVG Version: 6.00 Build 0)  -->
<svg version="1.1" id="Layer_1" xmlns="http://www.w3.org/2000/svg" xmlns:xlink="http://www.w3.org/1999/xlink" x="0px" y="0px"
	 viewBox="0 0 512 512" style="enable-background:new 0 0 512 512;" xml:space="preserve">
<style type="text/css">
	.st0{fill:#9C1006;}
</style>
<g>
	<path class="st0" d="M409.6,78.5h-103c-10.8,0-19.5,8.7-19.5,19.5v316c0,10.8,8.7,19.5,19.5,19.5h103c10.8,0,19.5-8.7,19.5-19.5V98
		C429.1,87.2,420.4,78.5,409.6,78.5z M414.1,414c0,2.4-2.1,4.5-4.5,4.5h-103c-2.4,0-4.5-2.1-4.5-4.5v-25.3h37c4.1,0,7.5-3.4,7.5-7.5
		s-3.4-7.5-7.5-7.5h-37v-47.5h37c4.1,0,7.5-3.4,7.5-7.5s-3.4-7.5-7.5-7.5h-37v-47.5h37c4.1,0,7.5-3.4,7.5-7.5c0-4.1-3.4-7.5-7.5-7.5
		h-37V201h37c4.1,0,7.5-3.4,7.5-7.5s-3.4-7.5-7.5-7.5h-37V98c0-2.4,2.1-4.5,4.5-4.5h103c2.4,0,4.5,2.1,4.5,4.5V414z"/>
	<path class="st0" d="M259.8,252.7c4.1,0,7.5-3.4,7.5-7.5s-3.4-7.5-7.5-7.5h-59.2c-6.5,0-11.8,5.3-11.8,11.8v68.6
		c0,6.5,5.3,11.8,11.8,11.8h59.2c4.1,0,7.5-3.4,7.5-7.5s-3.4-7.5-7.5-7.5h-56v-62.2H259.8z"/>
	<path class="st0" d="M259.8,393.1H136.9c-0.8,0-1.5-0.7-1.5-1.5V236.1c0-0.4,0-0.8-0.1-1.1h9.8c4.1,0,7.5-3.4,7.5-7.5
		s-3.4-7.5-7.5-7.5h-40.1c-4.4,0-6.1-3.5-6.5-4.6c-0.4-1.1-1.5-5,1.8-8.1L243.8,96.9c0.1-0.1,0.3-0.2,0.4-0.3c2.6-2.3,6.5-2.3,9.1,0
		c3.1,2.7,7.8,2.5,10.6-0.6c2.7-3.1,2.5-7.8-0.6-10.6c-8.2-7.3-20.5-7.3-28.8-0.2L90.8,195.5c-0.1,0.1-0.3,0.2-0.4,0.3
		c-7,6.2-9.4,16-6.1,24.8c3.3,8.7,11.4,14.3,20.6,14.3h15.5c-0.1,0.4-0.1,0.7-0.1,1.1v155.5c0,9.1,7.4,16.5,16.5,16.5h122.9
		c4.1,0,7.5-3.4,7.5-7.5S263.9,393.1,259.8,393.1z"/>
</g>
</svg>
