<?xml version="1.0" encoding="utf-8"?>
<!-- Generator: Adobe Illustrator 23.0.4, SVG Export Plug-In . SVG Version: 6.00 Build 0)  -->
<svg version="1.1" id="Layer_1" xmlns="http://www.w3.org/2000/svg" xmlns:xlink="http://www.w3.org/1999/xlink" x="0px" y="0px"
	 viewBox="0 0 512 512" style="enable-background:new 0 0 512 512;" xml:space="preserve">
<style type="text/css">
	.st0{fill:#9C1006;}
</style>
<g>
	<path class="st0" d="M400.1,415.6H115.7c-4.1,0-7.5-3.4-7.5-7.5V123.7c0-4.1,3.4-7.5,7.5-7.5h284.4c4.1,0,7.5,3.4,7.5,7.5v284.4
		C407.6,412.3,404.2,415.6,400.1,415.6z M123.2,400.6h269.4V131.2H123.2V400.6z"/>
</g>
<g>
	<g>
		<path class="st0" d="M189.8,257.9c0-7.5-0.1-13.6-0.6-19.6h11.5l0.6,11.6h0.4c4-6.9,10.7-13.3,22.7-13.3c9.9,0,17.3,6,20.5,14.5
			h0.3c2.2-4,5.1-7.2,8.1-9.4c4.3-3.3,9.1-5.1,16-5.1c9.6,0,23.7,6.3,23.7,31.4v42.5h-12.8v-40.9c0-13.9-5.1-22.2-15.7-22.2
			c-7.5,0-13.3,5.5-15.5,11.9c-0.6,1.8-1,4.2-1,6.6v44.6h-12.8v-43.3c0-11.5-5.1-19.9-15.1-19.9c-8.2,0-14.2,6.6-16.3,13.1
			c-0.7,1.9-1,4.2-1,6.4v43.6h-12.8V257.9z"/>
	</g>
	<g>
		<path class="st0" d="M307.4,260.9v-4.7l6-5.8c14.4-13.8,21-21.1,21.1-29.6c0-5.7-2.8-11.1-11.2-11.1c-5.1,0-9.4,2.6-12,4.8
			l-2.4-5.4c3.9-3.3,9.5-5.7,16-5.7c12.2,0,17.3,8.4,17.3,16.4c0,10.4-7.6,18.9-19.5,30.4l-4.5,4.2v0.2h25.4v6.4H307.4z"/>
	</g>
</g>
<path class="st0" d="M386.1,76.3l-13.3-7.7l-13.3-7.7c-2.7-1.6-6.1,0.4-6.1,3.5v7.9H140.1c-4.1,0-7.5,3.4-7.5,7.5s3.4,7.5,7.5,7.5
	h213.3v7.9c0,3.1,3.4,5.1,6.1,3.5l13.3-7.7l13.3-7.7C388.8,81.8,388.8,77.9,386.1,76.3z"/>
<path class="st0" d="M90.6,175.6l-7.7-13.3l-7.7-13.3c-1.6-2.7-5.5-2.7-7.1,0l-7.7,13.3l-7.7,13.3c-1.6,2.7,0.4,6.1,3.5,6.1h7.9
	v213.3c0,4.1,3.4,7.5,7.5,7.5s7.5-3.4,7.5-7.5V181.7H87C90.2,181.7,92.1,178.3,90.6,175.6z"/>
</svg>
