<?xml version="1.0" encoding="utf-8"?>
<!-- Generator: Adobe Illustrator 23.0.4, SVG Export Plug-In . SVG Version: 6.00 Build 0)  -->
<svg version="1.1" id="Capa_1" xmlns="http://www.w3.org/2000/svg" xmlns:xlink="http://www.w3.org/1999/xlink" x="0px" y="0px"
	 viewBox="0 0 512 512" style="enable-background:new 0 0 512 512;" xml:space="preserve">
<style type="text/css">
	.st0{fill:#9C1006;}
</style>
<g>
	<g>
		<path class="st0" d="M366.63,228.09c-2.7-4.82-8.79-6.54-13.61-3.84l-0.53,0.3c-4.8,2.73-6.47,8.84-3.74,13.64
			c1.84,3.24,5.22,5.05,8.7,5.05c1.68,0,3.38-0.42,4.94-1.31l0.4-0.23C367.61,239.01,369.33,232.91,366.63,228.09z"/>
	</g>
</g>
<g>
	<g>
		<path class="st0" d="M203.07,299.93c-1.86-1.86-4.44-2.93-7.07-2.93s-5.21,1.07-7.07,2.93c-1.86,1.86-2.93,4.44-2.93,7.07
			s1.07,5.21,2.93,7.07S193.37,317,196,317s5.21-1.07,7.07-2.93c1.86-1.86,2.93-4.44,2.93-7.07S204.93,301.79,203.07,299.93z"/>
	</g>
</g>
<g>
	<g>
		<path class="st0" d="M258,252h-24.48c14.32-31.93,23.8-65.66,28.24-100.49l4.16-32.69c0.53-4.18-1.61-8.24-5.35-10.16
			c-3.75-1.92-8.29-1.29-11.37,1.57l-3.35,3.11c-13.92,12.93-26.34,27.1-37.18,42.29c8.78-42.15,20.07-84.76,32.34-111.51l0.05-0.11
			c1.9-4.13,0.76-9.03-2.76-11.9c-3.52-2.88-8.54-3.02-12.22-0.34c-19.87,14.46-37.74,31.65-53.07,50.86
			c2.79-23.63,9.27-46.9,19.19-68.44c1.77-3.86,0.92-8.42-2.13-11.37c-3.05-2.95-7.63-3.66-11.43-1.75l-18.49,9.27
			c-28.78,14.42-48.68,40.68-55.09,71.28c-13.78-15.85-30.67-28.78-49.8-37.92L28.34,30.82c-3.92-1.87-8.6-1-11.58,2.16
			c-2.98,3.16-3.59,7.88-1.49,11.69l1.8,3.27C35.5,81.45,49.44,117,58.7,153.94c-6.79-5.07-14.08-9.5-21.81-13.19l-22.58-10.79
			c-3.92-1.87-8.6-1-11.58,2.16c-2.98,3.16-3.59,7.88-1.49,11.69l1.51,2.74c18.2,33.08,31.15,68.51,38.6,105.46H10
			c-5.52,0-10,4.48-10,10v165.5C0,474.1,37.91,512,84.5,512h99c46.59,0,84.5-37.91,84.5-84.5V262C268,256.48,263.52,252,258,252z
			 M242.38,145.43l-0.45,3.57c-4.56,35.86-14.81,70.48-30.45,103.01h-25.89C195.8,212.23,215.17,175.93,242.38,145.43z
			 M209.12,72.33c-16.34,51.65-27.35,116.15-30.87,138.29c-0.01,0.06-0.01,0.11-0.02,0.17c-5.45,13.29-9.88,27.05-13.24,41.21
			h-31.83C133.62,184.18,161.41,119.4,209.12,72.33z M122.84,103.17c0-30.03,15.69-57.23,41.3-72.26
			c-8.35,25.12-12.7,51.67-12.7,78.04v2.79c0,0.63,0.07,1.24,0.18,1.83c-3.04,5.11-5.93,10.31-8.62,15.6
			c-2.04,4-3.96,8.05-5.8,12.14c-3.42-12.29-8.37-24.15-14.78-35.32C122.69,105.11,122.84,104.15,122.84,103.17z M46.63,61.73
			L46.63,61.73c45.96,21.97,75.76,68.89,76.21,119.76c-6.25,22.96-9.54,46.72-9.69,70.51h-2.07c-1.15-22.34-7.97-44-19.95-63
			c-2.01-3.19-4.16-6.26-6.42-9.24C77.32,138.76,64.56,99.18,46.63,61.73z M32.42,160.89c33.92,18.02,56.27,52.86,58.64,91.11H61.73
			C55.71,220.46,45.89,189.93,32.42,160.89z M248,427.5c0,35.57-28.93,64.5-64.5,64.5h-99C48.94,492,20,463.07,20,427.5V317h137.5
			c5.52,0,10-4.48,10-10s-4.48-10-10-10H20v-25h152.93c0.04,0,0.08,0,0.12,0h44.62c0.01,0,0.02,0,0.03,0c0.01,0,0.02,0,0.03,0H248
			V427.5z"/>
	</g>
</g>
<g>
	<g>
		<path class="st0" d="M509.87,359.83c-1.9-2.42-4.8-3.83-7.87-3.83h-54.17l0-73.86c0-4.1-0.41-8.18-1.18-12.19l36.66-24.68
			c8.78-5.91,15.42-14.71,18.7-24.76c7.04-21.58-2.23-45.29-22.04-56.38c-0.12-0.07-0.25-0.14-0.38-0.2
			c-16.08-8.12-35.04-6.29-49.17,3.76l0-27.44c0-8.45-2.86-16.78-8.07-23.44c-11.16-14.29-31-18.73-47.19-10.55
			c-0.13,0.06-0.25,0.13-0.38,0.2c-15.82,8.86-23.22,27.8-17.6,45.04c2.62,8.04,7.93,15.06,14.94,19.78l39.14,26.34
			c-0.56,2.92-0.85,5.89-0.85,8.87l0,16.73c-6.37-2.99-13.26-4.96-20.47-5.76c-5.48-0.62-10.44,3.34-11.05,8.83
			c-0.61,5.49,3.34,10.44,8.83,11.05c9.71,1.09,18.58,5.18,25.59,11.69c0.15,0.15,0.31,0.3,0.48,0.44c1.59,1.52,3.08,3.16,4.46,4.93
			c6.16,7.89,9.55,17.75,9.55,27.76l0,73.86h-12.39l-55.8-37.56c-8.3-5.59-14.59-13.91-17.69-23.42
			c-3.5-10.72-2.86-22.28,1.78-32.56c2.27-5.03,0.04-10.96-4.99-13.23c-5.03-2.28-10.96-0.04-13.23,4.99
			c-6.71,14.84-7.62,31.53-2.57,47.01c4.48,13.73,13.55,25.74,25.54,33.81L379.63,356H312c-3.07,0-5.97,1.41-7.87,3.83
			s-2.58,5.57-1.84,8.55l33.35,136c1.1,4.47,5.11,7.62,9.71,7.62h123.31c4.61,0,8.61-3.14,9.71-7.62l33.35-136
			C512.45,365.4,511.77,362.25,509.87,359.83z M383.32,154.68c-3.33-2.24-5.85-5.58-7.1-9.4c-2.65-8.12,0.78-17.03,8.17-21.28
			c7.65-3.75,16.96-1.63,22.22,5.1c2.47,3.16,3.83,7.12,3.83,11.13l0,32.69L383.32,154.68z M436.3,189.45
			c8.06-10.33,22.37-13.57,34.1-7.76c11.37,6.48,16.67,20.16,12.61,32.62c-1.9,5.84-5.76,10.95-10.86,14.38l-32.51,21.89
			c-1.64-2.96-3.5-5.81-5.6-8.49c-1.14-1.46-2.35-2.86-3.6-4.2l0-31.39C430.44,200.34,432.52,194.29,436.3,189.45z M480.92,410
			H370.33c-5.52,0-10,4.48-10,10s4.48,10,10,10h105.68l-15.2,62H353.19l-28.44-116h87.65h25.44h51.42L480.92,410z"/>
	</g>
</g>
</svg>
