<?xml version="1.0" encoding="utf-8"?>
<!-- Generator: Adobe Illustrator 23.0.4, SVG Export Plug-In . SVG Version: 6.00 Build 0)  -->
<svg version="1.1" id="Layer_1" xmlns="http://www.w3.org/2000/svg" xmlns:xlink="http://www.w3.org/1999/xlink" x="0px" y="0px"
	 viewBox="0 0 463.06 463.06" style="enable-background:new 0 0 463.06 463.06;" xml:space="preserve">
<style type="text/css">
	.st0{fill:#9C1006;}
</style>
<g>
	<g>
		<g>
			<path class="st0" d="M343.03,311.53v-16.5h8.5c4.14,0,7.5-3.36,7.5-7.5s-3.36-7.5-7.5-7.5h-13.59l3-9h2.59
				c4.14,0,7.5-3.36,7.5-7.5s-3.36-7.5-7.5-7.5h-7.85c-0.01,0-0.01,0-0.02,0H287.4c-0.01,0-0.02,0-0.04,0h-7.84
				c-4.14,0-7.5,3.36-7.5,7.5s3.36,7.5,7.5,7.5h2.59l3,9h-46.09v-169h212.71c5.5,0,10.07-3.77,11.11-9.17s-1.8-10.6-6.91-12.64
				L234.38,0.59c-0.24-0.1-0.49-0.19-0.75-0.26c0,0-0.01,0-0.01,0c-0.23-0.06-0.45-0.12-0.68-0.17c-0.06-0.01-0.12-0.02-0.18-0.03
				c-0.18-0.03-0.35-0.06-0.53-0.08c-0.22-0.02-0.45-0.03-0.67-0.03c-0.01,0-0.03,0-0.04,0c-0.24,0-0.48,0.01-0.71,0.03
				c-0.15,0.02-0.31,0.04-0.46,0.07c-0.08,0.01-0.16,0.02-0.24,0.03c-0.22,0.04-0.44,0.1-0.65,0.16c-0.01,0-0.02,0-0.04,0.01
				c-0.25,0.07-0.5,0.16-0.74,0.26L7.12,89.21c-5.11,2.04-7.95,7.24-6.91,12.64s5.61,9.17,11.11,9.17h212.71v169h-46.09l3-9h2.59
				c4.14,0,7.5-3.36,7.5-7.5s-3.36-7.5-7.5-7.5h-7.85c-0.01,0-0.01,0-0.01,0H127.4c-0.01,0-0.02,0-0.04,0h-7.84
				c-4.14,0-7.5,3.36-7.5,7.5s3.36,7.5,7.5,7.5h2.59l3,9h-13.59c-4.14,0-7.5,3.36-7.5,7.5s3.36,7.5,7.5,7.5h8.5v16.5
				c0,8.55,6.95,15.5,15.5,15.5h88.5v82.23c-9.29,3.14-16,11.93-16,22.27v16.5h-16.5c-4.14,0-7.5,3.36-7.5,7.5s3.36,7.5,7.5,7.5h80
				c4.14,0,7.5-3.36,7.5-7.5s-3.36-7.5-7.5-7.5h-16.5v-16.5c0-10.33-6.71-19.13-16-22.27v-82.23h88.5v0
				C336.08,327.03,343.03,320.08,343.03,311.53z M325.12,271.03l-3,9h-21.19l-3-9H325.12z M432.58,96.03H330.64l-67.97-67.97
				L432.58,96.03z M30.47,96.03l169.92-67.97l-67.97,67.97H30.47z M153.64,96.03l77.89-77.89l77.89,77.89H153.64z M165.12,271.03
				l-3,9h-21.19l-3-9H165.12z M240.03,431.53v16.5h-17v-16.5c0-4.69,3.81-8.5,8.5-8.5S240.03,426.84,240.03,431.53z M327.53,312.03
				h-192c-0.27,0-0.5-0.23-0.5-0.5v-16.5h0.47c0.01,0,0.02,0,0.02,0s0.02,0,0.02,0h191.95c0.01,0,0.02,0,0.02,0s0.02,0,0.02,0h0.47
				v16.5C328.03,311.8,327.8,312.03,327.53,312.03z"/>
			<path class="st0" d="M103.53,344.03H30.15L14.97,222.6c-0.51-4.11-4.27-7.02-8.37-6.51c-4.11,0.51-7.03,4.26-6.51,8.37L16.03,352
				v31.53v72c0,4.14,3.36,7.5,7.5,7.5s7.5-3.36,7.5-7.5v-32.5h65v32.5c0,4.14,3.36,7.5,7.5,7.5s7.5-3.36,7.5-7.5V389.8
				c9.29-3.14,16-11.93,16-22.27C127.03,354.57,116.49,344.03,103.53,344.03z M96.03,408.03h-65v-17h65V408.03z M103.53,376.03
				h-72.5v-17h72.5c4.69,0,8.5,3.81,8.5,8.5S108.22,376.03,103.53,376.03z"/>
			<path class="st0" d="M456.46,216.09c-4.11-0.52-7.86,2.4-8.37,6.51l-15.18,121.43h-73.38c-12.96,0-23.5,10.54-23.5,23.5
				c0,10.33,6.71,19.13,16,22.27v65.73c0,4.14,3.36,7.5,7.5,7.5s7.5-3.36,7.5-7.5v-32.5h65v32.5c0,4.14,3.36,7.5,7.5,7.5
				s7.5-3.36,7.5-7.5v-72v-31.53l15.94-127.54C463.48,220.35,460.57,216.6,456.46,216.09z M432.03,408.03h-65v-17h65V408.03z
				 M432.03,376.03h-72.5c-4.69,0-8.5-3.81-8.5-8.5s3.81-8.5,8.5-8.5h72.5V376.03z"/>
		</g>
	</g>
</g>
</svg>
