<?xml version="1.0" encoding="utf-8"?>
<!-- Generator: Adobe Illustrator 25.0.0, SVG Export Plug-In . SVG Version: 6.00 Build 0)  -->
<svg version="1.1" id="Capa_1" xmlns="http://www.w3.org/2000/svg" xmlns:xlink="http://www.w3.org/1999/xlink" x="0px" y="0px"
	 viewBox="0 0 20.53 20.8" style="enable-background:new 0 0 20.53 20.8;" xml:space="preserve">
<style type="text/css">
	.st0{fill:none;stroke:#720E00;stroke-miterlimit:10;}
	.st1{fill:#720E00;}
	.st2{font-family:'MyriadPro-Regular';}
	.st3{font-size:9.7155px;}
	.st4{fill:none;stroke:#720E00;stroke-width:0.5;stroke-miterlimit:10;}
	.st5{fill:#720E00;stroke:#720E00;stroke-width:0.25;stroke-miterlimit:10;}
</style>
<path class="st0" d="M1.21,1.99v16.8c0,0.41,0.34,0.75,0.76,0.75h16.58"/>
<line class="st0" x1="1.83" y1="1.26" x2="4.09" y2="1.26"/>
<line class="st0" x1="4.29" y1="1.26" x2="6.56" y2="1.26"/>
<line class="st0" x1="6.77" y1="1.26" x2="9.03" y2="1.26"/>
<line class="st0" x1="9.25" y1="1.26" x2="11.52" y2="1.26"/>
<line class="st0" x1="11.7" y1="1.26" x2="13.96" y2="1.26"/>
<line class="st0" x1="14.16" y1="1.26" x2="16.43" y2="1.26"/>
<line class="st0" x1="16.64" y1="1.26" x2="18.91" y2="1.26"/>
<line class="st0" x1="19.29" y1="2.01" x2="19.3" y2="4.2"/>
<line class="st0" x1="19.3" y1="4.4" x2="19.3" y2="6.59"/>
<line class="st0" x1="19.3" y1="6.8" x2="19.31" y2="8.99"/>
<line class="st0" x1="19.31" y1="9.2" x2="19.31" y2="11.4"/>
<line class="st0" x1="19.31" y1="11.57" x2="19.32" y2="13.76"/>
<line class="st0" x1="19.32" y1="13.96" x2="19.32" y2="16.15"/>
<line class="st0" x1="19.32" y1="16.36" x2="19.33" y2="18.55"/>
<text transform="matrix(1.0407 0 0 1 3.6817 15.134)" class="st1 st2 st3">m2</text>
</svg>
