<?xml version="1.0" encoding="utf-8"?>
<!-- Generator: Adobe Illustrator 25.0.0, SVG Export Plug-In . SVG Version: 6.00 Build 0)  -->
<svg version="1.1" id="Capa_1" xmlns="http://www.w3.org/2000/svg" xmlns:xlink="http://www.w3.org/1999/xlink" x="0px" y="0px"
	 viewBox="0 0 20.53 20.8" style="enable-background:new 0 0 20.53 20.8;" xml:space="preserve">
<style type="text/css">
	.st0{fill:none;stroke:#720E00;stroke-miterlimit:10;}
	.st1{fill:none;stroke:#720E00;stroke-width:0.5;stroke-miterlimit:10;}
	.st2{fill:#720E00;}
	.st3{fill:#720E00;stroke:#720E00;stroke-width:0.25;stroke-miterlimit:10;}
</style>
<g>
	<path class="st3" d="M4.2,3.71c0-0.11,0-0.2,0-0.29c0-0.32-0.01-0.65,0.01-0.97c0.03-0.5,0.48-0.87,1-0.86
		c0.51,0.01,0.94,0.42,0.95,0.92C6.17,2.9,6.17,3.29,6.17,3.67c0,0,0.01,0.01,0.02,0.03c2.71,0,5.43,0,8.18,0c0-0.05,0-0.11,0-0.16
		c0-0.33,0-0.66,0-0.99c0-0.52,0.42-0.93,0.95-0.95c0.53-0.02,0.97,0.37,1,0.89c0.02,0.34,0.01,0.68,0.01,1.02c0,0.06,0,0.12,0,0.2
		c0.09,0,0.15,0,0.21,0c0.62,0,1.24,0,1.86,0c0.59,0,1.06,0.42,1.12,0.99c0.01,0.06,0.01,0.13,0.01,0.19c0,4.37,0,8.74,0,13.1
		c0,0.29-0.06,0.57-0.25,0.8c-0.24,0.29-0.56,0.41-0.94,0.41c-4,0-8,0-12.01,0c-1.38,0-2.75,0-4.13,0c-0.71,0-1.19-0.46-1.19-1.15
		c0-4.4,0-8.79,0-13.19c0-0.7,0.48-1.15,1.19-1.15c0.6,0,1.19,0,1.79,0C4.05,3.71,4.11,3.71,4.2,3.71z M1.58,6.93
		c0,0.06-0.01,0.1-0.01,0.14c0,3.67,0,7.35,0.01,11.02c0,0.14,0.09,0.29,0.18,0.41c0.13,0.16,0.33,0.16,0.53,0.16
		c4.07,0,8.14,0,12.21,0c1.27,0,2.53,0,3.8,0c0.44,0,0.66-0.22,0.66-0.64c0-3.63,0-7.25,0-10.88c0-0.07,0-0.13,0-0.2
		C13.15,6.93,7.38,6.93,1.58,6.93z M1.57,6.37c5.81,0,11.59,0,17.36,0c0.01-0.03,0.02-0.04,0.02-0.06c0-0.51,0.01-1.03,0-1.54
		c-0.01-0.29-0.24-0.51-0.55-0.51c-0.65-0.01-1.29,0-1.94,0c-0.1,0-0.13,0.04-0.13,0.13c0.01,0.14,0,0.27,0,0.41
		c-0.02,0.56-0.45,0.96-1.02,0.95c-0.53-0.01-0.95-0.44-0.95-0.98c0-0.16,0-0.33,0-0.5c-2.74,0-5.46,0-8.21,0c0,0.18,0,0.36,0,0.53
		c0,0.25-0.09,0.47-0.27,0.65C5.6,5.74,5.25,5.83,4.86,5.69C4.46,5.56,4.24,5.28,4.21,4.87c-0.01-0.2,0-0.39,0-0.6
		c-0.74,0-1.44-0.01-2.15,0.01C1.78,4.28,1.58,4.52,1.58,4.81c0,0.13,0,0.26,0,0.39C1.57,5.59,1.57,5.97,1.57,6.37z M15.77,3.68
		c0-0.36,0-0.72,0-1.08c0-0.27-0.16-0.45-0.41-0.46c-0.24-0.01-0.43,0.18-0.43,0.44c0,0.72,0,1.45,0,2.17
		c0,0.26,0.19,0.45,0.43,0.44c0.24-0.01,0.4-0.19,0.4-0.45C15.77,4.4,15.77,4.04,15.77,3.68z M4.77,3.67c0,0.36,0,0.72,0,1.08
		c0,0.28,0.18,0.47,0.42,0.46c0.24,0,0.41-0.19,0.41-0.46c0-0.71,0-1.42,0-2.13c0-0.27-0.18-0.47-0.43-0.46
		c-0.24,0-0.41,0.19-0.41,0.46C4.77,2.96,4.77,3.31,4.77,3.67z"/>
	<path class="st3" d="M9.61,9.39c0,0.35,0,0.69,0,1.04c0,0.23-0.09,0.33-0.33,0.33c-0.72,0.01-1.43,0.01-2.15,0
		c-0.24,0-0.33-0.11-0.33-0.34c0-0.69,0-1.38,0-2.06c0-0.24,0.1-0.34,0.35-0.34c0.7,0,1.41,0,2.11,0c0.24,0,0.34,0.1,0.34,0.33
		C9.62,8.7,9.61,9.04,9.61,9.39z M7.38,8.58c0,0.54,0,1.07,0,1.61c0.56,0,1.11,0,1.65,0c0-0.55,0-1.08,0-1.61
		C8.47,8.58,7.93,8.58,7.38,8.58z"/>
	<path class="st3" d="M10.92,9.41c0-0.35,0-0.69,0-1.04c0-0.25,0.1-0.34,0.35-0.35c0.7,0,1.4,0,2.1,0c0.27,0,0.36,0.09,0.36,0.35
		c0,0.69,0,1.38,0,2.07c0,0.22-0.1,0.33-0.33,0.33c-0.72,0.01-1.44,0.01-2.15,0c-0.23,0-0.33-0.11-0.33-0.33
		C10.92,10.09,10.92,9.75,10.92,9.41z M11.5,8.58c0,0.54,0,1.07,0,1.61c0.56,0,1.1,0,1.66,0c0-0.54,0-1.07,0-1.61
		C12.6,8.58,12.05,8.58,11.5,8.58z"/>
	<path class="st3" d="M17.84,9.39c0,0.35,0,0.69,0,1.04c0,0.23-0.09,0.33-0.33,0.33c-0.72,0-1.44,0.01-2.15,0
		c-0.23,0-0.33-0.11-0.33-0.33c0-0.69,0-1.39,0-2.08c0-0.23,0.1-0.33,0.33-0.33c0.72,0,1.44,0,2.15,0c0.23,0,0.32,0.1,0.32,0.33
		C17.84,8.7,17.84,9.04,17.84,9.39z M15.6,8.58c0,0.54,0,1.07,0,1.61c0.56,0,1.11,0,1.66,0c0-0.55,0-1.08,0-1.61
		C16.7,8.58,16.16,8.58,15.6,8.58z"/>
	<path class="st3" d="M2.7,9.37c0-0.35,0-0.69,0-1.04c0-0.22,0.1-0.31,0.32-0.31c0.72,0,1.44,0,2.15,0c0.23,0,0.33,0.1,0.33,0.33
		c0,0.69,0,1.39,0,2.08c0,0.22-0.1,0.33-0.33,0.33c-0.72,0-1.44,0-2.15,0c-0.23,0-0.32-0.1-0.32-0.33C2.69,10.08,2.69,9.73,2.7,9.37
		z M4.93,8.58c-0.56,0-1.11,0-1.67,0c0,0.54,0,1.07,0,1.61c0.56,0,1.11,0,1.67,0C4.93,9.66,4.93,9.13,4.93,8.58z"/>
	<path class="st3" d="M2.69,16.19c0-0.35,0-0.69,0-1.04c0-0.24,0.1-0.33,0.34-0.33c0.71,0,1.41,0,2.12,0c0.25,0,0.35,0.1,0.35,0.35
		c0,0.68,0,1.37,0,2.05c0,0.26-0.1,0.35-0.36,0.35c-0.7,0-1.4,0-2.1,0c-0.25,0-0.34-0.09-0.34-0.34
		C2.69,16.88,2.69,16.53,2.69,16.19C2.69,16.19,2.69,16.19,2.69,16.19z M4.93,17c0-0.55,0-1.08,0-1.62c-0.56,0-1.11,0-1.66,0
		c0,0.55,0,1.08,0,1.62C3.83,17,4.37,17,4.93,17z"/>
	<path class="st3" d="M6.8,16.19c0-0.35,0-0.69,0-1.04c0-0.22,0.1-0.33,0.33-0.33c0.72,0,1.44,0,2.15,0c0.22,0,0.32,0.1,0.33,0.32
		c0,0.71,0,1.41,0,2.12c0,0.21-0.1,0.31-0.31,0.31c-0.73,0-1.46,0-2.19,0c-0.21,0-0.31-0.11-0.31-0.31
		C6.8,16.89,6.8,16.54,6.8,16.19z M9.03,17c0-0.54,0-1.08,0-1.62c-0.56,0-1.1,0-1.65,0c0,0.54,0,1.08,0,1.62
		C7.94,17,8.48,17,9.03,17z"/>
	<path class="st3" d="M8.2,11.42c0.36,0,0.72,0,1.08,0c0.22,0,0.32,0.1,0.33,0.31c0,0.71,0,1.41,0,2.12c0,0.21-0.1,0.31-0.33,0.31
		c-0.72,0-1.43,0-2.15,0c-0.23,0-0.33-0.1-0.33-0.33c0-0.69,0-1.39,0-2.08c0-0.23,0.1-0.32,0.33-0.33
		C7.49,11.42,7.85,11.42,8.2,11.42z M7.38,13.6c0.57,0,1.11,0,1.65,0c0-0.55,0-1.08,0-1.62c-0.56,0-1.1,0-1.65,0
		C7.38,12.53,7.38,13.06,7.38,13.6z"/>
	<path class="st3" d="M12.31,11.42c0.35,0,0.7,0,1.05,0c0.27,0,0.36,0.09,0.36,0.34c0,0.68,0,1.37,0,2.05
		c0,0.26-0.09,0.34-0.36,0.34c-0.69,0-1.39,0-2.08,0c-0.27,0-0.36-0.09-0.36-0.34c0-0.68,0-1.37,0-2.05c0-0.26,0.09-0.34,0.36-0.35
		C11.63,11.42,11.97,11.42,12.31,11.42z M11.5,11.98c0,0.55,0,1.08,0,1.62c0.56,0,1.1,0,1.65,0c0-0.55,0-1.08,0-1.62
		C12.6,11.98,12.05,11.98,11.5,11.98z"/>
	<path class="st3" d="M2.7,12.79c0-0.35,0-0.71,0-1.06c0-0.21,0.1-0.31,0.31-0.31c0.73,0,1.46,0,2.19,0c0.2,0,0.31,0.1,0.31,0.29
		c0,0.72,0,1.44,0,2.15c0,0.19-0.11,0.29-0.31,0.29c-0.73,0-1.46,0-2.19,0c-0.21,0-0.3-0.1-0.31-0.31C2.69,13.5,2.7,13.14,2.7,12.79
		z M4.93,11.98c-0.57,0-1.11,0-1.67,0c0,0.55,0,1.08,0,1.62c0.56,0,1.11,0,1.67,0C4.93,13.05,4.93,12.52,4.93,11.98z"/>
	<path class="st3" d="M17.84,12.79c0,0.35,0,0.71,0,1.06c0,0.21-0.1,0.31-0.31,0.31c-0.72,0-1.45,0-2.17,0
		c-0.22,0-0.33-0.1-0.33-0.31c0-0.71,0-1.41,0-2.12c0-0.21,0.11-0.31,0.33-0.31c0.72,0,1.44,0,2.15,0c0.22,0,0.32,0.09,0.32,0.31
		C17.84,12.09,17.84,12.44,17.84,12.79z M15.6,13.6c0.56,0,1.11,0,1.66,0c0-0.55,0-1.08,0-1.62c-0.56,0-1.11,0-1.66,0
		C15.6,12.53,15.6,13.06,15.6,13.6z"/>
	<path class="st3" d="M11.94,16.5c0.4-0.39,0.77-0.76,1.15-1.12c0.05-0.05,0.1-0.1,0.15-0.14c0.12-0.09,0.28-0.08,0.38,0.02
		c0.1,0.1,0.11,0.27,0,0.39c-0.16,0.17-0.33,0.32-0.49,0.48c-0.31,0.3-0.62,0.6-0.93,0.91c-0.18,0.17-0.32,0.17-0.5,0.01
		c-0.22-0.21-0.43-0.42-0.64-0.63c-0.16-0.15-0.17-0.31-0.04-0.43c0.12-0.12,0.29-0.11,0.44,0.04
		C11.62,16.17,11.77,16.32,11.94,16.5z"/>
</g>
</svg>
